<?xml version="1.0" encoding="UTF-8" standalone="no"?>
<!-- Created with Inkscape (http://www.inkscape.org/) -->

<svg
   xmlns:dc="http://purl.org/dc/elements/1.1/"
   xmlns:cc="http://creativecommons.org/ns#"
   xmlns:rdf="http://www.w3.org/1999/02/22-rdf-syntax-ns#"
   xmlns:svg="http://www.w3.org/2000/svg"
   xmlns="http://www.w3.org/2000/svg"
   xmlns:sodipodi="http://sodipodi.sourceforge.net/DTD/sodipodi-0.dtd"
   xmlns:inkscape="http://www.inkscape.org/namespaces/inkscape"
   width="281.59717mm"
   height="451.94598mm"
   viewBox="0 0 281.59717 451.94599"
   version="1.1"
   id="svg8"
   inkscape:version="0.92.3 (2405546, 2018-03-11)"
   sodipodi:docname="angular.svg"
   inkscape:export-filename="/home/pgeoffroy/dev/projets/projet-cours-simplon/images/angular_component.png"
   inkscape:export-xdpi="150"
   inkscape:export-ydpi="150">
  <defs
     id="defs2">
    <marker
       inkscape:isstock="true"
       style="overflow:visible"
       id="marker1656"
       refX="0"
       refY="0"
       orient="auto"
       inkscape:stockid="Arrow2Mend">
      <path
         inkscape:connector-curvature="0"
         transform="scale(-0.6)"
         d="M 8.7185878,4.0337352 -2.2072895,0.01601326 8.7185884,-4.0017078 c -1.7454984,2.3720609 -1.7354408,5.6174519 -6e-7,8.035443 z"
         style="fill:#000000;fill-opacity:1;fill-rule:evenodd;stroke:#000000;stroke-width:0.625;stroke-linejoin:round;stroke-opacity:1"
         id="path1654" />
    </marker>
    <marker
       inkscape:isstock="true"
       style="overflow:visible"
       id="marker1000"
       refX="0"
       refY="0"
       orient="auto"
       inkscape:stockid="Arrow2Mend">
      <path
         inkscape:connector-curvature="0"
         transform="scale(-0.6)"
         d="M 8.7185878,4.0337352 -2.2072895,0.01601326 8.7185884,-4.0017078 c -1.7454984,2.3720609 -1.7354408,5.6174519 -6e-7,8.035443 z"
         style="fill:#000000;fill-opacity:1;fill-rule:evenodd;stroke:#000000;stroke-width:0.625;stroke-linejoin:round;stroke-opacity:1"
         id="path998" />
    </marker>
    <marker
       inkscape:stockid="Arrow2Mend"
       orient="auto"
       refY="0"
       refX="0"
       id="Arrow2Mend"
       style="overflow:visible"
       inkscape:isstock="true"
       inkscape:collect="always">
      <path
         id="path886"
         style="fill:#000000;fill-opacity:1;fill-rule:evenodd;stroke:#000000;stroke-width:0.625;stroke-linejoin:round;stroke-opacity:1"
         d="M 8.7185878,4.0337352 -2.2072895,0.01601326 8.7185884,-4.0017078 c -1.7454984,2.3720609 -1.7354408,5.6174519 -6e-7,8.035443 z"
         transform="scale(-0.6)"
         inkscape:connector-curvature="0" />
    </marker>
    <marker
       inkscape:stockid="Arrow2Mend"
       orient="auto"
       refY="0"
       refX="0"
       id="Arrow2Mend-9"
       style="overflow:visible"
       inkscape:isstock="true">
      <path
         inkscape:connector-curvature="0"
         id="path886-1"
         style="fill:#000000;fill-opacity:1;fill-rule:evenodd;stroke:#000000;stroke-width:0.625;stroke-linejoin:round;stroke-opacity:1"
         d="M 8.7185878,4.0337352 -2.2072895,0.01601326 8.7185884,-4.0017078 c -1.7454984,2.3720609 -1.7354408,5.6174519 -6e-7,8.035443 z"
         transform="scale(-0.6)" />
    </marker>
    <marker
       inkscape:stockid="Arrow2Mend"
       orient="auto"
       refY="0"
       refX="0"
       id="Arrow2Mend-9-3"
       style="overflow:visible"
       inkscape:isstock="true">
      <path
         inkscape:connector-curvature="0"
         id="path886-1-6"
         style="fill:#000000;fill-opacity:1;fill-rule:evenodd;stroke:#000000;stroke-width:0.625;stroke-linejoin:round;stroke-opacity:1"
         d="M 8.7185878,4.0337352 -2.2072895,0.01601326 8.7185884,-4.0017078 c -1.7454984,2.3720609 -1.7354408,5.6174519 -6e-7,8.035443 z"
         transform="scale(-0.6)" />
    </marker>
    <marker
       inkscape:stockid="Arrow2Mend"
       orient="auto"
       refY="0"
       refX="0"
       id="Arrow2Mend-7"
       style="overflow:visible"
       inkscape:isstock="true">
      <path
         id="path886-5"
         style="fill:#000000;fill-opacity:1;fill-rule:evenodd;stroke:#000000;stroke-width:0.625;stroke-linejoin:round;stroke-opacity:1"
         d="M 8.7185878,4.0337352 -2.2072895,0.01601326 8.7185884,-4.0017078 c -1.7454984,2.3720609 -1.7354408,5.6174519 -6e-7,8.035443 z"
         transform="scale(-0.6)"
         inkscape:connector-curvature="0" />
    </marker>
  </defs>
  <sodipodi:namedview
     id="base"
     pagecolor="#ffffff"
     bordercolor="#666666"
     borderopacity="1.0"
     inkscape:pageopacity="1"
     inkscape:pageshadow="2"
     inkscape:zoom="0.24748737"
     inkscape:cx="427.37944"
     inkscape:cy="1059.4047"
     inkscape:document-units="mm"
     inkscape:current-layer="layer1"
     showgrid="false"
     fit-margin-top="10"
     fit-margin-left="10"
     fit-margin-bottom="10"
     fit-margin-right="10"
     inkscape:showpageshadow="false"
     inkscape:window-width="1600"
     inkscape:window-height="845"
     inkscape:window-x="0"
     inkscape:window-y="27"
     inkscape:window-maximized="1" />
  <metadata
     id="metadata5">
    <rdf:RDF>
      <cc:Work
         rdf:about="">
        <dc:format>image/svg+xml</dc:format>
        <dc:type
           rdf:resource="http://purl.org/dc/dcmitype/StillImage" />
        <dc:title></dc:title>
      </cc:Work>
    </rdf:RDF>
  </metadata>
  <g
     inkscape:label="Calque 1"
     inkscape:groupmode="layer"
     id="layer1"
     transform="translate(-2549.0981,52.40083)">
    <circle
       style="opacity:1;fill:none;fill-opacity:1;stroke:#8d8d8d;stroke-width:1.32291663;stroke-miterlimit:4;stroke-dasharray:none;stroke-dashoffset:0;stroke-opacity:1"
       id="path815"
       cx="2689.8967"
       cy="146.40756"
       r="62.821186" />
    <circle
       style="opacity:1;fill:none;fill-opacity:1;stroke:#8d8d8d;stroke-width:1.32291663;stroke-miterlimit:4;stroke-dasharray:none;stroke-dashoffset:0;stroke-opacity:1"
       id="path817"
       cx="2689.8967"
       cy="146.40756"
       r="130.13712" />
    <text
       xml:space="preserve"
       style="font-style:normal;font-weight:normal;font-size:10.58333302px;line-height:1.25;font-family:sans-serif;letter-spacing:0px;word-spacing:0px;fill:#000000;fill-opacity:1;stroke:none;stroke-width:0.26458332"
       x="2669.1448"
       y="41.488094"
       id="text821"><tspan
         sodipodi:role="line"
         id="tspan819"
         x="2669.1448"
         y="41.488094"
         style="stroke-width:0.26458332">this.date</tspan></text>
    <g
       id="g1198"
       transform="translate(-11.22532,0.9068901)">
      <text
         id="text821-3"
         y="137.61526"
         x="2669.1448"
         style="font-style:normal;font-weight:normal;font-size:10.58333302px;line-height:1.25;font-family:sans-serif;letter-spacing:0px;word-spacing:0px;fill:#000000;fill-opacity:1;stroke:none;stroke-width:0.26458332"
         xml:space="preserve"><tspan
           style="stroke-width:0.26458332"
           y="137.61526"
           x="2669.1448"
           id="tspan819-6"
           sodipodi:role="line">this.list</tspan></text>
      <text
         id="text821-7"
         y="158.02599"
         x="2669.1448"
         style="font-style:normal;font-weight:normal;font-size:10.58333302px;line-height:1.25;font-family:sans-serif;letter-spacing:0px;word-spacing:0px;fill:#000000;fill-opacity:1;stroke:none;stroke-width:0.26458332"
         xml:space="preserve"><tspan
           style="stroke-width:0.26458332"
           y="158.02599"
           x="2669.1448"
           id="tspan819-5"
           sodipodi:role="line">this.delete()</tspan></text>
    </g>
    <text
       xml:space="preserve"
       style="font-style:normal;font-weight:normal;font-size:10.58333302px;line-height:1.25;font-family:sans-serif;letter-spacing:0px;word-spacing:0px;fill:#000000;fill-opacity:1;stroke:none;stroke-width:0.26458332"
       x="2669.1448"
       y="253.11864"
       id="text821-35"><tspan
         sodipodi:role="line"
         id="tspan819-62"
         x="2669.1448"
         y="253.11864"
         style="stroke-width:0.26458332">this.fun()</tspan></text>
    <path
       style="fill:none;stroke:#000000;stroke-width:1;stroke-linecap:butt;stroke-linejoin:miter;stroke-miterlimit:4;stroke-dasharray:none;stroke-opacity:1;marker-end:url(#Arrow2Mend)"
       d="M 2679.8402,58.081059 V 115.56491"
       id="path857"
       inkscape:connector-curvature="0"
       sodipodi:nodetypes="cc" />
    <g
       id="g1186"
       transform="translate(-11.22532,15.501633)">
      <text
         id="text1762"
         y="167.85262"
         x="2673.7812"
         style="font-style:normal;font-weight:normal;font-size:10.58333302px;line-height:1.25;font-family:sans-serif;letter-spacing:0px;word-spacing:0px;fill:#ff0404;fill-opacity:1;stroke:none;stroke-width:0.26458332"
         xml:space="preserve"><tspan
           style="fill:#ff0404;fill-opacity:1;stroke-width:0.26458332"
           y="167.85262"
           x="2673.7812"
           id="tspan1760"
           sodipodi:role="line">()</tspan></text>
      <text
         id="text1766"
         y="167.16016"
         x="2696.4731"
         style="font-style:normal;font-weight:normal;font-size:10.58333302px;line-height:1.25;font-family:sans-serif;letter-spacing:0px;word-spacing:0px;fill:#ff0404;fill-opacity:1;stroke:none;stroke-width:0.26458332"
         xml:space="preserve"><tspan
           style="fill:#ff0404;fill-opacity:1;stroke-width:0.26458332"
           y="167.16016"
           x="2696.4731"
           id="tspan1764"
           sodipodi:role="line">@output</tspan></text>
    </g>
    <g
       id="g1192"
       transform="translate(-11.22532,37.952268)">
      <text
         id="text1770"
         y="75.848785"
         x="2673.7812"
         style="font-style:normal;font-weight:normal;font-size:10.58333302px;line-height:1.25;font-family:sans-serif;letter-spacing:0px;word-spacing:0px;fill:#ff0404;fill-opacity:1;stroke:none;stroke-width:0.26458332"
         xml:space="preserve"><tspan
           style="fill:#ff0404;fill-opacity:1;stroke-width:0.26458332"
           y="75.848785"
           x="2673.7812"
           id="tspan1768"
           sodipodi:role="line">[]</tspan></text>
      <text
         id="text1774"
         y="75.445709"
         x="2700.3179"
         style="font-style:normal;font-weight:normal;font-size:10.58333302px;line-height:1.25;font-family:sans-serif;letter-spacing:0px;word-spacing:0px;fill:#ff0404;fill-opacity:1;stroke:none;stroke-width:0.26458332"
         xml:space="preserve"><tspan
           style="fill:#ff0404;fill-opacity:1;stroke-width:0.26458332"
           y="75.445709"
           x="2700.3179"
           id="tspan1772"
           sodipodi:role="line">@input</tspan></text>
    </g>
    <g
       id="g2267"
       transform="translate(80.720673,-18.142857)">
      <text
         id="text1778"
         y="-13.696428"
         x="2477.2561"
         style="font-style:normal;font-weight:normal;font-size:10.58333302px;line-height:1.25;font-family:sans-serif;letter-spacing:0px;word-spacing:0px;fill:#000000;fill-opacity:1;stroke:none;stroke-width:0.26458332"
         xml:space="preserve"><tspan
           style="stroke-width:0.26458332"
           y="-13.696428"
           x="2477.2561"
           id="tspan1776"
           sodipodi:role="line">&lt;app-toto  [list]=&quot;data&quot;&gt; &lt;/app-toto&gt;</tspan></text>
      <text
         id="text1782"
         y="5.2023811"
         x="2537.6562"
         style="font-style:normal;font-weight:normal;font-size:10.58333302px;line-height:1.25;font-family:sans-serif;letter-spacing:0px;word-spacing:0px;fill:#000000;fill-opacity:1;stroke:none;stroke-width:0.26458332"
         xml:space="preserve"><tspan
           style="stroke-width:0.26458332"
           y="5.2023811"
           x="2537.6562"
           id="tspan1780"
           sodipodi:role="line">(delete) = &quot;fun()&quot;</tspan></text>
      <path
         sodipodi:nodetypes="cc"
         inkscape:connector-curvature="0"
         id="path1784"
         d="M 2534.2496,-24.257973 V 8.3489098"
         style="fill:none;stroke:#8d8d8d;stroke-width:1.32291663;stroke-linecap:butt;stroke-linejoin:miter;stroke-miterlimit:4;stroke-dasharray:none;stroke-opacity:1" />
    </g>
    <text
       xml:space="preserve"
       style="font-style:normal;font-weight:normal;font-size:10.58333302px;line-height:1.25;font-family:sans-serif;letter-spacing:0px;word-spacing:0px;fill:#000000;fill-opacity:1;stroke:none;stroke-width:0.26458332"
       x="2559.0156"
       y="287.65994"
       id="text1788"><tspan
         sodipodi:role="line"
         id="tspan1786"
         x="2559.0156"
         y="287.65994"
         style="stroke-width:0.26458332">Controller</tspan><tspan
         sodipodi:role="line"
         x="2559.0156"
         y="300.8891"
         style="stroke-width:0.26458332"
         id="tspan1790">Vue</tspan></text>
    <text
       xml:space="preserve"
       style="font-style:normal;font-weight:normal;font-size:10.58333302px;line-height:1.25;font-family:sans-serif;letter-spacing:0px;word-spacing:0px;fill:#000000;fill-opacity:1;stroke:none;stroke-width:0.26458332"
       x="2558.0596"
       y="331.09912"
       id="text2238"><tspan
         sodipodi:role="line"
         id="tspan2236"
         x="2558.0596"
         y="331.09912"
         style="stroke-width:0.26458332">MVVC (représente le flux des donées)</tspan><tspan
         sodipodi:role="line"
         x="2558.0596"
         y="344.32828"
         style="stroke-width:0.26458332"
         id="tspan2240">MWC</tspan></text>
    <circle
       style="opacity:1;fill:none;fill-opacity:1;stroke:#8d8d8d;stroke-width:1.32291663;stroke-miterlimit:4;stroke-dasharray:none;stroke-dashoffset:0;stroke-opacity:1"
       id="path815-3"
       cx="3142.5208"
       cy="197.47086"
       r="62.821186" />
    <circle
       style="opacity:1;fill:none;fill-opacity:1;stroke:#8d8d8d;stroke-width:1.32291663;stroke-miterlimit:4;stroke-dasharray:none;stroke-dashoffset:0;stroke-opacity:1"
       id="path817-5"
       cx="3142.5208"
       cy="197.47086"
       r="130.13712" />
    <text
       xml:space="preserve"
       style="font-style:normal;font-weight:normal;font-size:10.58333302px;line-height:1.25;font-family:sans-serif;letter-spacing:0px;word-spacing:0px;fill:#000000;fill-opacity:1;stroke:none;stroke-width:0.26458332"
       x="3121.7688"
       y="92.551399"
       id="text821-6"><tspan
         sodipodi:role="line"
         id="tspan819-2"
         x="3121.7688"
         y="92.551399"
         style="stroke-width:0.26458332">this.date</tspan></text>
    <text
       xml:space="preserve"
       style="font-style:normal;font-weight:normal;font-size:10.58333302px;line-height:1.25;font-family:sans-serif;letter-spacing:0px;word-spacing:0px;fill:#000000;fill-opacity:1;stroke:none;stroke-width:0.26458332"
       x="3121.7688"
       y="163.02069"
       id="text821-3-9"><tspan
         sodipodi:role="line"
         id="tspan819-6-1"
         x="3121.7688"
         y="163.02069"
         style="stroke-width:0.26458332">this.list</tspan></text>
    <text
       xml:space="preserve"
       style="font-style:normal;font-weight:normal;font-size:10.58333302px;line-height:1.25;font-family:sans-serif;letter-spacing:0px;word-spacing:0px;fill:#000000;fill-opacity:1;stroke:none;stroke-width:0.26458332"
       x="3121.7688"
       y="183.43141"
       id="text821-7-2"><tspan
         sodipodi:role="line"
         id="tspan819-5-7"
         x="3121.7688"
         y="183.43141"
         style="stroke-width:0.26458332">this.delete()</tspan></text>
    <text
       xml:space="preserve"
       style="font-style:normal;font-weight:normal;font-size:10.58333302px;line-height:1.25;font-family:sans-serif;letter-spacing:0px;word-spacing:0px;fill:#000000;fill-opacity:1;stroke:none;stroke-width:0.26458332"
       x="3121.7688"
       y="304.18195"
       id="text821-35-0"><tspan
         sodipodi:role="line"
         id="tspan819-62-9"
         x="3121.7688"
         y="304.18195"
         style="stroke-width:0.26458332">this.fun()</tspan></text>
    <path
       style="fill:none;stroke:#000000;stroke-width:1;stroke-linecap:butt;stroke-linejoin:miter;stroke-miterlimit:4;stroke-dasharray:none;stroke-opacity:1;marker-end:url(#Arrow2Mend-7)"
       d="m 3143.6896,109.14436 v 39.30952"
       id="path857-3"
       inkscape:connector-curvature="0" />
    <path
       style="fill:none;stroke:#000000;stroke-width:1;stroke-linecap:butt;stroke-linejoin:miter;stroke-miterlimit:4;stroke-dasharray:none;stroke-opacity:1;marker-end:url(#Arrow2Mend-9-3)"
       d="m 3143.6896,196.49488 v 90.09645"
       id="path857-2-6"
       inkscape:connector-curvature="0"
       sodipodi:nodetypes="cc" />
    <text
       xml:space="preserve"
       style="font-style:normal;font-weight:normal;font-size:10.58333302px;line-height:1.25;font-family:sans-serif;letter-spacing:0px;word-spacing:0px;fill:#ff0404;fill-opacity:1;stroke:none;stroke-width:0.26458332"
       x="3126.4053"
       y="218.91591"
       id="text1762-0"><tspan
         sodipodi:role="line"
         id="tspan1760-6"
         x="3126.4053"
         y="218.91591"
         style="fill:#ff0404;fill-opacity:1;stroke-width:0.26458332">()</tspan></text>
    <text
       xml:space="preserve"
       style="font-style:normal;font-weight:normal;font-size:10.58333302px;line-height:1.25;font-family:sans-serif;letter-spacing:0px;word-spacing:0px;fill:#ff0404;fill-opacity:1;stroke:none;stroke-width:0.26458332"
       x="3149.0972"
       y="218.22345"
       id="text1766-2"><tspan
         sodipodi:role="line"
         id="tspan1764-6"
         x="3149.0972"
         y="218.22345"
         style="fill:#ff0404;fill-opacity:1;stroke-width:0.26458332">@output</tspan></text>
    <text
       xml:space="preserve"
       style="font-style:normal;font-weight:normal;font-size:10.58333302px;line-height:1.25;font-family:sans-serif;letter-spacing:0px;word-spacing:0px;fill:#ff0404;fill-opacity:1;stroke:none;stroke-width:0.26458332"
       x="3126.4053"
       y="126.91209"
       id="text1770-1"><tspan
         sodipodi:role="line"
         id="tspan1768-8"
         x="3126.4053"
         y="126.91209"
         style="fill:#ff0404;fill-opacity:1;stroke-width:0.26458332">[]</tspan></text>
    <text
       xml:space="preserve"
       style="font-style:normal;font-weight:normal;font-size:10.58333302px;line-height:1.25;font-family:sans-serif;letter-spacing:0px;word-spacing:0px;fill:#ff0404;fill-opacity:1;stroke:none;stroke-width:0.26458332"
       x="3152.9419"
       y="126.50901"
       id="text1774-7"><tspan
         sodipodi:role="line"
         id="tspan1772-9"
         x="3152.9419"
         y="126.50901"
         style="fill:#ff0404;fill-opacity:1;stroke-width:0.26458332">@input</tspan></text>
    <g
       id="g2267-2"
       transform="translate(533.34478,32.920444)">
      <text
         id="text1778-0"
         y="-13.696428"
         x="2477.2561"
         style="font-style:normal;font-weight:normal;font-size:10.58333302px;line-height:1.25;font-family:sans-serif;letter-spacing:0px;word-spacing:0px;fill:#000000;fill-opacity:1;stroke:none;stroke-width:0.26458332"
         xml:space="preserve"><tspan
           style="stroke-width:0.26458332"
           y="-13.696428"
           x="2477.2561"
           id="tspan1776-2"
           sodipodi:role="line">&lt;app-toto  [list]=&quot;data&quot;&gt; &lt;/app-toto&gt;</tspan></text>
      <text
         id="text1782-3"
         y="5.2023811"
         x="2537.6562"
         style="font-style:normal;font-weight:normal;font-size:10.58333302px;line-height:1.25;font-family:sans-serif;letter-spacing:0px;word-spacing:0px;fill:#000000;fill-opacity:1;stroke:none;stroke-width:0.26458332"
         xml:space="preserve"><tspan
           style="stroke-width:0.26458332"
           y="5.2023811"
           x="2537.6562"
           id="tspan1780-7"
           sodipodi:role="line">(delete) = &quot;fun()&quot;</tspan></text>
      <path
         sodipodi:nodetypes="cc"
         inkscape:connector-curvature="0"
         id="path1784-5"
         d="M 2534.2496,-24.257973 V 8.3489098"
         style="fill:none;stroke:#8d8d8d;stroke-width:1.32291663;stroke-linecap:butt;stroke-linejoin:miter;stroke-miterlimit:4;stroke-dasharray:none;stroke-opacity:1" />
    </g>
    <g
       id="g2260-9"
       transform="translate(478.57201,68.450208)">
      <text
         id="text1788-2"
         y="270.27304"
         x="2533.0676"
         style="font-style:normal;font-weight:normal;font-size:10.58333302px;line-height:1.25;font-family:sans-serif;letter-spacing:0px;word-spacing:0px;fill:#000000;fill-opacity:1;stroke:none;stroke-width:0.26458332"
         xml:space="preserve"><tspan
           style="stroke-width:0.26458332"
           y="270.27304"
           x="2533.0676"
           id="tspan1786-2"
           sodipodi:role="line">Controller</tspan><tspan
           id="tspan1790-8"
           style="stroke-width:0.26458332"
           y="283.5022"
           x="2533.0676"
           sodipodi:role="line">Vue</tspan></text>
      <text
         id="text2238-9"
         y="309.82892"
         x="2532.1116"
         style="font-style:normal;font-weight:normal;font-size:10.58333302px;line-height:1.25;font-family:sans-serif;letter-spacing:0px;word-spacing:0px;fill:#000000;fill-opacity:1;stroke:none;stroke-width:0.26458332"
         xml:space="preserve"><tspan
           style="stroke-width:0.26458332"
           y="309.82892"
           x="2532.1116"
           id="tspan2236-7"
           sodipodi:role="line">MVVC (représente le flux des donées)</tspan><tspan
           id="tspan2240-3"
           style="stroke-width:0.26458332"
           y="323.05807"
           x="2532.1116"
           sodipodi:role="line">MWC</tspan></text>
    </g>
    <path
       sodipodi:nodetypes="cc"
       inkscape:connector-curvature="0"
       id="path1652"
       d="m 2679.8402,170.33426 v 57.48385"
       style="fill:none;stroke:#000000;stroke-width:1;stroke-linecap:butt;stroke-linejoin:miter;stroke-miterlimit:4;stroke-dasharray:none;stroke-opacity:1;marker-end:url(#marker1656)" />
    <text
       xml:space="preserve"
       style="font-style:normal;font-weight:normal;font-size:10.58333302px;line-height:1.25;font-family:sans-serif;letter-spacing:0px;word-spacing:0px;fill:#000000;fill-opacity:1;stroke:none;stroke-width:0.26458332"
       x="2559.1292"
       y="374.11456"
       id="text903"><tspan
         sodipodi:role="line"
         id="tspan901"
         x="2559.1292"
         y="374.11456"
         style="stroke-width:0.26458332">One way data binding</tspan><tspan
         sodipodi:role="line"
         x="2559.1292"
         y="387.34372"
         style="stroke-width:0.26458332"
         id="tspan905">Two way data binding</tspan></text>
  </g>
</svg>
